simulation/qsim/TeamDesign.msim.vcd
$comment
	File created using the following command:
		vcd file TeamDesign.msim.vcd -direction
$end
$date
	Tue Dec 04 23:18:25 2018
$end
$version
	ModelSim Version 10.5b
$end
$timescale
	1ps
$end

$scope module TeamDesign_vlg_vec_tst $end
$var reg 1 ! ck $end
$var reg 1 " en1 $end
$var reg 1 # en2 $end
$var reg 1 $ ld1 $end
$var reg 1 % ld2 $end
$var wire 1 & g1 $end
$var wire 1 ' g2 $end
$var wire 1 ( r1 $end
$var wire 1 ) r2 $end
$var wire 1 * y1 $end
$var wire 1 + y2 $end

$scope module i1 $end
$var wire 1 , gnd $end
$var wire 1 - vcc $end
$var wire 1 . unknown $end
$var tri1 1 / devclrn $end
$var tri1 1 0 devpor $end
$var tri1 1 1 devoe $end
$var wire 1 2 ld2~input_o $end
$var wire 1 3 en1~input_o $end
$var wire 1 4 en2~input_o $end
$var wire 1 5 g1~output_o $end
$var wire 1 6 y1~output_o $end
$var wire 1 7 r1~output_o $end
$var wire 1 8 g2~output_o $end
$var wire 1 9 y2~output_o $end
$var wire 1 : r2~output_o $end
$var wire 1 ; ck~input_o $end
$var wire 1 < Add3~0_combout $end
$var wire 1 = t1~53_combout $end
$var wire 1 > ld1~input_o $end
$var wire 1 ? Add0~1 $end
$var wire 1 @ Add0~3 $end
$var wire 1 A Add0~5 $end
$var wire 1 B Add0~7 $end
$var wire 1 C Add0~9 $end
$var wire 1 D Add0~11 $end
$var wire 1 E Add0~13 $end
$var wire 1 F Add0~15 $end
$var wire 1 G Add0~17 $end
$var wire 1 H Add0~19 $end
$var wire 1 I Add0~21 $end
$var wire 1 J Add0~23 $end
$var wire 1 K Add0~25 $end
$var wire 1 L Add0~27 $end
$var wire 1 M Add0~29 $end
$var wire 1 N Add0~31 $end
$var wire 1 O Add0~33 $end
$var wire 1 P Add0~35 $end
$var wire 1 Q Add0~37 $end
$var wire 1 R Add0~39 $end
$var wire 1 S Add0~40_combout $end
$var wire 1 T t1~23_combout $end
$var wire 1 U Add3~39 $end
$var wire 1 V Add3~40_combout $end
$var wire 1 W t1~68_combout $end
$var wire 1 X Add0~41 $end
$var wire 1 Y Add0~42_combout $end
$var wire 1 Z t1~22_combout $end
$var wire 1 [ Add3~41 $end
$var wire 1 \ Add3~42_combout $end
$var wire 1 ] t1~67_combout $end
$var wire 1 ^ Add0~43 $end
$var wire 1 _ Add0~44_combout $end
$var wire 1 ` t1~19_combout $end
$var wire 1 a Add3~43 $end
$var wire 1 b Add3~44_combout $end
$var wire 1 c t1~66_combout $end
$var wire 1 d Add0~45 $end
$var wire 1 e Add0~46_combout $end
$var wire 1 f t1~18_combout $end
$var wire 1 g Add3~45 $end
$var wire 1 h Add3~46_combout $end
$var wire 1 i t1~65_combout $end
$var wire 1 j Add0~47 $end
$var wire 1 k Add0~48_combout $end
$var wire 1 l t1~17_combout $end
$var wire 1 m Add3~47 $end
$var wire 1 n Add3~48_combout $end
$var wire 1 o t1~63_combout $end
$var wire 1 p Add0~49 $end
$var wire 1 q Add0~50_combout $end
$var wire 1 r t1~16_combout $end
$var wire 1 s Add3~49 $end
$var wire 1 t Add3~50_combout $end
$var wire 1 u t1~62_combout $end
$var wire 1 v Add0~51 $end
$var wire 1 w Add0~52_combout $end
$var wire 1 x t1~14_combout $end
$var wire 1 y Add3~51 $end
$var wire 1 z Add3~52_combout $end
$var wire 1 { t1~60_combout $end
$var wire 1 | Add0~53 $end
$var wire 1 } Add0~54_combout $end
$var wire 1 ~ t1~13_combout $end
$var wire 1 !! Add3~53 $end
$var wire 1 "! Add3~54_combout $end
$var wire 1 #! t1~58_combout $end
$var wire 1 $! Add0~55 $end
$var wire 1 %! Add0~56_combout $end
$var wire 1 &! t1~12_combout $end
$var wire 1 '! Add3~55 $end
$var wire 1 (! Add3~56_combout $end
$var wire 1 )! t1~57_combout $end
$var wire 1 *! Add0~57 $end
$var wire 1 +! Add0~58_combout $end
$var wire 1 ,! t1~11_combout $end
$var wire 1 -! Add3~57 $end
$var wire 1 .! Add3~58_combout $end
$var wire 1 /! t1~56_combout $end
$var wire 1 0! Add0~59 $end
$var wire 1 1! Add0~60_combout $end
$var wire 1 2! t1~45_combout $end
$var wire 1 3! Add3~59 $end
$var wire 1 4! Add3~60_combout $end
$var wire 1 5! t1~55_combout $end
$var wire 1 6! Add0~61 $end
$var wire 1 7! Add0~62_combout $end
$var wire 1 8! t1~46_combout $end
$var wire 1 9! Add3~61 $end
$var wire 1 :! Add3~62_combout $end
$var wire 1 ;! t1~51_combout $end
$var wire 1 <! t1~52_combout $end
$var wire 1 =! t1~54_combout $end
$var wire 1 >! t1~59_combout $end
$var wire 1 ?! t1~64_combout $end
$var wire 1 @! t1~69_combout $end
$var wire 1 A! t1~74_combout $end
$var wire 1 B! t1~79_combout $end
$var wire 1 C! t1~84_combout $end
$var wire 1 D! t1~85_combout $end
$var wire 1 E! t1~89_combout $end
$var wire 1 F! t1~90_combout $end
$var wire 1 G! t1~91_combout $end
$var wire 1 H! Add0~0_combout $end
$var wire 1 I! t1~24_combout $end
$var wire 1 J! t1~26_combout $end
$var wire 1 K! t1~31_combout $end
$var wire 1 L! t1~36_combout $end
$var wire 1 M! t1~41_combout $end
$var wire 1 N! t1~42_combout $end
$var wire 1 O! t1~43_combout $end
$var wire 1 P! t1~44_combout $end
$var wire 1 Q! Add3~1 $end
$var wire 1 R! Add3~2_combout $end
$var wire 1 S! t1~50_combout $end
$var wire 1 T! Add0~2_combout $end
$var wire 1 U! t1~7_combout $end
$var wire 1 V! Add3~3 $end
$var wire 1 W! Add3~4_combout $end
$var wire 1 X! t1~61_combout $end
$var wire 1 Y! Add0~4_combout $end
$var wire 1 Z! t1~6_combout $end
$var wire 1 [! Add3~5 $end
$var wire 1 \! Add3~6_combout $end
$var wire 1 ]! t1~48_combout $end
$var wire 1 ^! Add0~6_combout $end
$var wire 1 _! t1~3_combout $end
$var wire 1 `! Add3~7 $end
$var wire 1 a! Add3~8_combout $end
$var wire 1 b! t1~88_combout $end
$var wire 1 c! Add0~8_combout $end
$var wire 1 d! t1~2_combout $end
$var wire 1 e! Add3~9 $end
$var wire 1 f! Add3~10_combout $end
$var wire 1 g! t1~87_combout $end
$var wire 1 h! Add0~10_combout $end
$var wire 1 i! t1~1_combout $end
$var wire 1 j! Add3~11 $end
$var wire 1 k! Add3~12_combout $end
$var wire 1 l! t1~86_combout $end
$var wire 1 m! Add0~12_combout $end
$var wire 1 n! t1~40_combout $end
$var wire 1 o! Add3~13 $end
$var wire 1 p! Add3~14_combout $end
$var wire 1 q! t1~83_combout $end
$var wire 1 r! Add0~14_combout $end
$var wire 1 s! t1~39_combout $end
$var wire 1 t! Add3~15 $end
$var wire 1 u! Add3~16_combout $end
$var wire 1 v! t1~82_combout $end
$var wire 1 w! Add0~16_combout $end
$var wire 1 x! t1~38_combout $end
$var wire 1 y! Add3~17 $end
$var wire 1 z! Add3~18_combout $end
$var wire 1 {! t1~81_combout $end
$var wire 1 |! Add0~18_combout $end
$var wire 1 }! t1~37_combout $end
$var wire 1 ~! Add3~19 $end
$var wire 1 !" Add3~20_combout $end
$var wire 1 "" t1~80_combout $end
$var wire 1 #" Add0~20_combout $end
$var wire 1 $" t1~35_combout $end
$var wire 1 %" Add3~21 $end
$var wire 1 &" Add3~22_combout $end
$var wire 1 '" t1~78_combout $end
$var wire 1 (" Add0~22_combout $end
$var wire 1 )" t1~34_combout $end
$var wire 1 *" Add3~23 $end
$var wire 1 +" Add3~24_combout $end
$var wire 1 ," t1~77_combout $end
$var wire 1 -" Add0~24_combout $end
$var wire 1 ." t1~33_combout $end
$var wire 1 /" Add3~25 $end
$var wire 1 0" Add3~26_combout $end
$var wire 1 1" t1~76_combout $end
$var wire 1 2" Add0~26_combout $end
$var wire 1 3" t1~32_combout $end
$var wire 1 4" Add3~27 $end
$var wire 1 5" Add3~29 $end
$var wire 1 6" Add3~30_combout $end
$var wire 1 7" t1~73_combout $end
$var wire 1 8" Add0~30_combout $end
$var wire 1 9" t1~29_combout $end
$var wire 1 :" Add3~31 $end
$var wire 1 ;" Add3~32_combout $end
$var wire 1 <" t1~72_combout $end
$var wire 1 =" Add0~32_combout $end
$var wire 1 >" t1~28_combout $end
$var wire 1 ?" Add3~33 $end
$var wire 1 @" Add3~34_combout $end
$var wire 1 A" t1~71_combout $end
$var wire 1 B" Add0~34_combout $end
$var wire 1 C" t1~27_combout $end
$var wire 1 D" Add3~35 $end
$var wire 1 E" Add3~36_combout $end
$var wire 1 F" t1~70_combout $end
$var wire 1 G" Add0~36_combout $end
$var wire 1 H" t1~25_combout $end
$var wire 1 I" Add3~37 $end
$var wire 1 J" Add3~38_combout $end
$var wire 1 K" t1~49_combout $end
$var wire 1 L" Add0~38_combout $end
$var wire 1 M" t1~0_combout $end
$var wire 1 N" t1~4_combout $end
$var wire 1 O" t1~5_combout $end
$var wire 1 P" t1~8_combout $end
$var wire 1 Q" t1~9_combout $end
$var wire 1 R" t1~10_combout $end
$var wire 1 S" t1~15_combout $end
$var wire 1 T" t1~20_combout $end
$var wire 1 U" t1~21_combout $end
$var wire 1 V" Equal6~0_combout $end
$var wire 1 W" whichLight~27_combout $end
$var wire 1 X" t1~30_combout $end
$var wire 1 Y" Add3~28_combout $end
$var wire 1 Z" t1~75_combout $end
$var wire 1 [" Add0~28_combout $end
$var wire 1 \" whichLight~0_combout $end
$var wire 1 ]" whichLight~1_combout $end
$var wire 1 ^" whichLight~2_combout $end
$var wire 1 _" whichLight~3_combout $end
$var wire 1 `" whichLight~4_combout $end
$var wire 1 a" whichLight~5_combout $end
$var wire 1 b" whichLight~6_combout $end
$var wire 1 c" whichLight~7_combout $end
$var wire 1 d" whichLight~8_combout $end
$var wire 1 e" whichLight~9_combout $end
$var wire 1 f" whichLight~10_combout $end
$var wire 1 g" whichLight~11_combout $end
$var wire 1 h" whichLight~12_combout $end
$var wire 1 i" whichLight~13_combout $end
$var wire 1 j" whichLight~14_combout $end
$var wire 1 k" whichLight~15_combout $end
$var wire 1 l" whichLight~16_combout $end
$var wire 1 m" whichLight~17_combout $end
$var wire 1 n" whichLight~18_combout $end
$var wire 1 o" whichLight~19_combout $end
$var wire 1 p" whichLight~20_combout $end
$var wire 1 q" whichLight~21_combout $end
$var wire 1 r" whichLight~22_combout $end
$var wire 1 s" whichLight~26_combout $end
$var wire 1 t" Equal4~0_combout $end
$var wire 1 u" t1~47_combout $end
$var wire 1 v" l1~8_combout $end
$var wire 1 w" l1.01~q $end
$var wire 1 x" l1~9_combout $end
$var wire 1 y" l1.10~q $end
$var wire 1 z" l1~10_combout $end
$var wire 1 {" l1.11~q $end
$var wire 1 |" whichLight~23_combout $end
$var wire 1 }" whichLight~24_combout $end
$var wire 1 ~" whichLight~25_combout $end
$var wire 1 !# l2~8_combout $end
$var wire 1 "# l2.01~q $end
$var wire 1 ## Equal6~1_combout $end
$var wire 1 $# l2.10~q $end
$var wire 1 %# l2.11~q $end
$var wire 1 &# whichLight [1] $end
$var wire 1 '# whichLight [0] $end
$var wire 1 (# t1 [31] $end
$var wire 1 )# t1 [30] $end
$var wire 1 *# t1 [29] $end
$var wire 1 +# t1 [28] $end
$var wire 1 ,# t1 [27] $end
$var wire 1 -# t1 [26] $end
$var wire 1 .# t1 [25] $end
$var wire 1 /# t1 [24] $end
$var wire 1 0# t1 [23] $end
$var wire 1 1# t1 [22] $end
$var wire 1 2# t1 [21] $end
$var wire 1 3# t1 [20] $end
$var wire 1 4# t1 [19] $end
$var wire 1 5# t1 [18] $end
$var wire 1 6# t1 [17] $end
$var wire 1 7# t1 [16] $end
$var wire 1 8# t1 [15] $end
$var wire 1 9# t1 [14] $end
$var wire 1 :# t1 [13] $end
$var wire 1 ;# t1 [12] $end
$var wire 1 <# t1 [11] $end
$var wire 1 =# t1 [10] $end
$var wire 1 ># t1 [9] $end
$var wire 1 ?# t1 [8] $end
$var wire 1 @# t1 [7] $end
$var wire 1 A# t1 [6] $end
$var wire 1 B# t1 [5] $end
$var wire 1 C# t1 [4] $end
$var wire 1 D# t1 [3] $end
$var wire 1 E# t1 [2] $end
$var wire 1 F# t1 [1] $end
$var wire 1 G# t1 [0] $end
$upscope $end
$upscope $end
$enddefinitions $end
#0
$dumpvars
0!
0"
0#
0$
0%
0&
0'
1(
0)
0*
1+
0,
1-
x.
1/
10
11
02
03
04
05
06
17
08
19
0:
0;
0<
1=
0>
0?
1@
0A
1B
0C
1D
0E
1F
0G
1H
0I
1J
0K
1L
0M
1N
0O
1P
0Q
1R
1S
1T
0U
1V
1W
0X
1Y
1Z
1[
1\
1]
1^
1_
1`
0a
1b
1c
0d
1e
1f
1g
1h
1i
1j
1k
1l
0m
1n
1o
0p
1q
1r
1s
1t
1u
1v
1w
1x
0y
1z
1{
0|
1}
1~
1!!
1"!
1#!
1$!
1%!
1&!
0'!
1(!
1)!
0*!
1+!
1,!
1-!
1.!
1/!
10!
11!
12!
03!
14!
15!
06!
17!
18!
19!
1:!
1;!
0<!
0=!
0>!
0?!
0@!
0A!
0B!
0C!
0D!
0E!
0F!
1G!
1H!
1I!
0J!
0K!
0L!
0M!
0N!
0O!
1P!
1Q!
1R!
1S!
1T!
1U!
0V!
1W!
1X!
1Y!
1Z!
1[!
1\!
1]!
1^!
1_!
0`!
1a!
1b!
1c!
1d!
1e!
1f!
1g!
1h!
1i!
0j!
1k!
1l!
1m!
1n!
1o!
1p!
1q!
1r!
1s!
0t!
1u!
1v!
1w!
1x!
1y!
1z!
1{!
1|!
1}!
0~!
1!"
1""
1#"
1$"
1%"
1&"
1'"
1("
1)"
0*"
1+"
1,"
1-"
1."
1/"
10"
11"
12"
13"
04"
15"
16"
17"
18"
19"
0:"
1;"
1<"
1="
1>"
1?"
1@"
1A"
1B"
1C"
0D"
1E"
1F"
1G"
1H"
1I"
1J"
1K"
1L"
1M"
0N"
0O"
1P"
0Q"
0R"
0S"
0T"
0U"
0V"
0W"
1X"
1Y"
1Z"
1["
0\"
0]"
0^"
0_"
0`"
1a"
0b"
0c"
0d"
0e"
0f"
0g"
0h"
0i"
0j"
0k"
0l"
0m"
0n"
0o"
0p"
0q"
0r"
0s"
1t"
0u"
1v"
0w"
0x"
0y"
1z"
0{"
0|"
0}"
0~"
0!#
0"#
1##
0$#
0%#
0'#
0&#
0G#
0F#
0E#
0D#
0C#
0B#
0A#
0@#
0?#
0>#
0=#
0<#
0;#
0:#
09#
08#
07#
06#
05#
04#
03#
02#
01#
00#
0/#
0.#
0-#
0,#
0+#
0*#
0)#
0(#
$end
#5000
1!
1;
1$#
1{"
19#
14#
15#
16#
17#
18#
1:#
1;#
1<#
1=#
1>#
1?#
1@#
1A#
1B#
1C#
1D#
1E#
1F#
1G#
1)#
1*#
1+#
1,#
1-#
1.#
1/#
10#
11#
12#
13#
1(#
1%#
1w"
15
1:
07
09
1M
0["
0R
0L"
1Q
0G"
0P
0B"
1O
0="
0N
08"
0L
02"
1K
0-"
0J
0("
1I
0#"
0H
0|!
1G
0w!
0F
0r!
1E
0m!
0D
0h!
1C
0c!
0B
0^!
1A
0Y!
0@
0T!
1?
0H!
16!
01!
00!
0+!
1*!
0%!
0$!
0}
1|
0w
0v
0q
1p
0k
0j
0e
1d
0_
0^
0Y
1X
0S
07!
0+
0(
1)
1&
18"
1\"
0X"
1S
1]"
0M"
1L"
0H"
1G"
0C"
1B"
0>"
1="
09"
1["
1d"
03"
12"
0."
1-"
0)"
1("
0$"
1#"
1c"
0}!
1|!
0x!
1w!
0s!
1r!
0n!
1m!
1b"
0i!
1h!
0d!
1c!
0_!
1^!
0Z!
1Y!
0U!
1T!
0a"
0I!
17!
02!
11!
1_"
0,!
1+!
0&!
1%!
0~
1}
0x
1w
1^"
0r
1q
0l
1k
0f
1e
0`
1_
0Z
1Y
0T
08!
0\"
19"
1`"
0Y"
1K!
0]"
1T
1N"
0J"
1M"
0E"
1J!
1H"
0@"
1C"
0;"
1>"
06"
1X"
00"
1L!
0d"
13"
0+"
1."
0&"
1)"
0!"
1$"
0z!
1M!
0c"
1}!
0u!
1x!
0p!
1s!
0k!
1n!
0f!
0b"
1i!
0a!
1d!
0\!
1_!
0P"
0W!
1Z!
0R!
1U!
0P!
1a"
18!
04!
12!
1S"
0.!
0_"
1,!
0(!
1&!
0"!
1~
0z
1x
1T"
0t
0^"
1r
0n
1l
0h
1f
0b
1`
0\
1Z
0V
0:!
0Z"
0K"
0F"
0A"
0<"
07"
01"
0,"
0'"
0""
0{!
0v!
0q!
0l!
0g!
0b!
0]!
0X!
0S!
05!
0/!
0)!
0#!
0{
0u
0o
0i
0c
0]
0W
0;!
0`"
16"
0K!
1k"
1N!
0J!
1V
1n"
0N"
1J"
1E"
1@"
1;"
1Y"
10"
0L!
1+"
1j"
1&"
1!"
1z!
0M!
1u!
1i"
1p!
1k!
1f!
1a!
1h"
1\!
1Q"
1P"
1W!
1R!
0=
0Q!
1<
1:!
1}"
14!
0S"
1.!
1(!
1m"
1"!
1z
0T"
1t
1n
1o"
1h
1b
1\
1B!
1<!
1A!
1C!
1?!
1>!
1@!
17"
1Z"
1W
1K"
1F"
1A"
1<"
11"
1,"
1'"
1""
1{!
1v!
1q!
1l!
1g!
1b!
1]!
1X!
1S!
1;!
15!
1/!
1)!
1#!
1{
1u
1o
1i
1c
1]
0k"
0N!
1l"
0o"
1|"
0n"
0j"
0i"
0h"
0Q"
0R!
0}"
0m"
1D!
0A!
0B!
0@!
0<!
0C!
0?!
0>!
0G!
0l"
0|"
0D!
#10000
0!
0;
#15000
1!
1;
0G#
0?
1H!
0T!
1I!
0U!
1P!
1V!
1R!
1=
1Q!
0<
0S!
0W!
0V!
0R!
1G!
1W!
#20000
0!
0;
#25000
1!
1;
0F#
1G#
1@
1T!
1?
0H!
0Y!
1U!
0@
0T!
0I!
0Z!
1R!
1Y!
0U!
0P!
1S!
0P"
0W!
1Z!
0R!
0=
0Q!
1<
0X!
0S!
1Q"
1P"
1W!
1V!
1R!
1X!
0G!
0Q"
0W!
#30000
0!
0;
#35000
1!
1;
0G#
0?
1H!
1@
1T!
1I!
0Y!
1U!
1P!
0Z!
0V!
0R!
1=
1Q!
0<
1S!
1R!
0X!
1G!
#40000
0!
0;
#45000
1!
1;
0E#
1F#
1G#
0A
1Y!
0@
0T!
1?
0H!
0^!
1Z!
1A
0Y!
0U!
1T!
0I!
0_!
1W!
1^!
0Z!
0R!
1U!
0P!
1X!
0S!
0\!
1_!
0W!
1R!
0=
0Q!
1<
0]!
0X!
1S!
1\!
0R!
1]!
0G!
#50000
0!
0;
#55000
1!
1;
0G#
0?
1H!
0T!
1I!
0U!
1P!
0P"
1V!
1R!
1=
1Q!
0<
0S!
1Q"
0[!
1W!
0V!
0R!
1G!
0\!
1[!
0W!
1h"
1\!
0h"
#60000
0!
0;
#65000
1!
1;
0F#
1G#
1@
1T!
1?
0H!
0A
1Y!
1U!
0@
0T!
0I!
0^!
1Z!
1P"
1R!
1A
0Y!
0U!
0P!
1S!
0_!
1W!
0Q"
1^!
0Z!
0R!
0=
0Q!
1<
1X!
0S!
0\!
1_!
0P"
0W!
1V!
1R!
0]!
0X!
0G!
1\!
1Q"
0[!
1W!
1]!
0\!
#70000
0!
0;
#75000
1!
1;
0G#
0?
1H!
1@
1T!
1I!
0A
1Y!
1U!
1P!
0^!
1Z!
1P"
0V!
0R!
1=
1Q!
0<
1S!
0_!
1[!
0Q"
1R!
1X!
1G!
0]!
#80000
0!
0;
#85000
1!
1;
0D#
1E#
1F#
1G#
1B
1^!
1A
0Y!
0@
0T!
1?
0H!
0c!
1_!
0B
0^!
0Z!
1Y!
0U!
1T!
0I!
0d!
1\!
1c!
0_!
0P"
0W!
1Z!
0R!
1U!
0P!
1]!
0X!
0S!
0a!
1d!
0\!
1Q"
1P"
1W!
1R!
0=
0Q!
1<
0b!
0]!
1X!
1S!
1a!
0Q"
0R!
1b!
0G!
#90000
0!
0;
#95000
1!
1;
0G#
0?
1H!
0T!
1I!
0U!
1P!
1V!
1R!
1=
1Q!
0<
0S!
0W!
0V!
0R!
1G!
1h"
1W!
0h"
#100000
0!
0;
#105000
1!
1;
0F#
1G#
1@
1T!
1?
0H!
0Y!
1U!
0@
0T!
0I!
0Z!
1R!
1Y!
0U!
0P!
1S!
0P"
0W!
1Z!
0R!
0=
0Q!
1<
0X!
0S!
1Q"
1P"
1W!
1V!
1R!
1X!
0G!
0Q"
0W!
#110000
0!
0;
#115000
1!
1;
0G#
0?
1H!
1@
1T!
1I!
0Y!
1U!
1P!
0Z!
0V!
0R!
1=
1Q!
0<
1S!
1h"
1R!
0X!
1G!
0h"
#120000
0!
0;
#125000
1!
1;
0E#
1F#
1G#
0A
1Y!
0@
0T!
1?
0H!
1B
1^!
1Z!
1A
0Y!
0U!
1T!
0I!
0c!
1_!
1W!
0B
0^!
0Z!
0R!
1U!
0P!
1X!
0S!
0d!
1\!
1c!
0_!
0W!
1R!
0=
0Q!
1<
1]!
0X!
1S!
0a!
1d!
0\!
0R!
0b!
0]!
0G!
1a!
1b!
#130000
0!
0;
#135000
1!
1;
0G#
0?
1H!
0T!
1I!
0U!
1P!
0P"
1V!
1R!
1=
1Q!
0<
0S!
1Q"
0[!
1W!
0V!
0R!
1G!
1`!
1\!
1[!
0W!
0a!
0`!
0\!
1a!
1h"
#140000
0!
0;
#145000
1!
1;
0F#
1G#
1@
1T!
1?
0H!
0A
1Y!
1U!
0@
0T!
0I!
1B
1^!
1Z!
1P"
1R!
1A
0Y!
0U!
0P!
1S!
0c!
1_!
1W!
0Q"
0h"
0B
0^!
0Z!
0R!
0=
0Q!
1<
1X!
0S!
0d!
1\!
1c!
0_!
0P"
0W!
1V!
1R!
1]!
0X!
0G!
0a!
1d!
0\!
1Q"
0[!
1W!
0b!
0]!
1a!
1`!
1\!
1b!
0a!
#150000
0!
0;
#155000
1!
1;
0G#
0?
1H!
1@
1T!
1I!
0A
1Y!
1U!
1P!
1B
1^!
1Z!
1P"
0V!
0R!
1=
1Q!
0<
1S!
0c!
1_!
1[!
0Q"
1R!
1X!
1G!
0d!
0`!
1]!
0b!
#160000
0!
0;
#165000
1!
1;
0C#
1D#
1E#
1F#
1G#
0C
1c!
0B
0^!
1A
0Y!
0@
0T!
1?
0H!
0h!
1d!
1C
0c!
0_!
1^!
0Z!
1Y!
0U!
1T!
0I!
0i!
1a!
1h!
0d!
0\!
1_!
0P"
0W!
1Z!
0R!
1U!
0P!
1b!
0]!
0X!
0S!
0f!
1i!
0a!
1h"
1\!
1Q"
1P"
1W!
1R!
0=
0Q!
1<
0g!
0b!
1]!
1X!
1S!
1f!
0h"
0Q"
0R!
1g!
0G!
#170000
0!
0;
#175000
1!
1;
0G#
0?
1H!
0T!
1I!
0U!
1P!
1V!
1R!
1=
1Q!
0<
0S!
0W!
0V!
0R!
1G!
1W!
#180000
0!
0;
#185000
1!
1;
0F#
1G#
1@
1T!
1?
0H!
0Y!
1U!
0@
0T!
0I!
0Z!
1R!
1Y!
0U!
0P!
1S!
0P"
0W!
1Z!
0R!
0=
0Q!
1<
0X!
0S!
1Q"
1P"
1W!
1V!
1R!
1X!
0G!
0Q"
0W!
#190000
0!
0;
#195000
1!
1;
0G#
0?
1H!
1@
1T!
1I!
0Y!
1U!
1P!
0Z!
0V!
0R!
1=
1Q!
0<
1S!
1R!
0X!
1G!
#200000
0!
0;
#205000
1!
1;
0E#
1F#
1G#
0A
1Y!
0@
0T!
1?
0H!
0^!
1Z!
1A
0Y!
0U!
1T!
0I!
0_!
1W!
1^!
0Z!
0R!
1U!
0P!
1X!
0S!
0\!
1_!
0W!
1R!
0=
0Q!
1<
0]!
0X!
1S!
1\!
0R!
1]!
0G!
#210000
0!
0;
#215000
1!
1;
0G#
0?
1H!
0T!
1I!
0U!
1P!
0P"
1V!
1R!
1=
1Q!
0<
0S!
1Q"
0[!
1W!
0V!
0R!
1G!
0\!
1[!
0W!
1h"
1\!
0h"
#220000
0!
0;
#225000
1!
1;
0F#
1G#
1@
1T!
1?
0H!
0A
1Y!
1U!
0@
0T!
0I!
0^!
1Z!
1P"
1R!
1A
0Y!
0U!
0P!
1S!
0_!
1W!
0Q"
1^!
0Z!
0R!
0=
0Q!
1<
1X!
0S!
0\!
1_!
0P"
0W!
1V!
1R!
0]!
0X!
0G!
1\!
1Q"
0[!
1W!
1]!
0\!
#230000
0!
0;
#235000
1!
1;
0G#
0?
1H!
1@
1T!
1I!
0A
1Y!
1U!
1P!
0^!
1Z!
1P"
0V!
0R!
1=
1Q!
0<
1S!
0_!
1[!
0Q"
1R!
1X!
1G!
0]!
#240000
0!
0;
#245000
1!
1;
0D#
1E#
1F#
1G#
1B
1^!
1A
0Y!
0@
0T!
1?
0H!
0C
1c!
1_!
0B
0^!
0Z!
1Y!
0U!
1T!
0I!
0h!
1d!
1\!
1C
0c!
0_!
0P"
0W!
1Z!
0R!
1U!
0P!
1]!
0X!
0S!
0i!
1a!
1h!
0d!
0\!
1Q"
1P"
1W!
1R!
0=
0Q!
1<
1b!
0]!
1X!
1S!
0f!
1i!
0a!
0Q"
0R!
0g!
0b!
0G!
1f!
1g!
#250000
0!
0;
#255000
1!
1;
0G#
0?
1H!
0T!
1I!
0U!
1P!
1V!
1R!
1=
1Q!
0<
0S!
0W!
0V!
0R!
1G!
1h"
1W!
0h"
#260000
0!
0;
#265000
1!
1;
0F#
1G#
1@
1T!
1?
0H!
0Y!
1U!
0@
0T!
0I!
0Z!
1R!
1Y!
0U!
0P!
1S!
0P"
0W!
1Z!
0R!
0=
0Q!
1<
0X!
0S!
1Q"
1P"
1W!
1V!
1R!
1X!
0G!
0Q"
0W!
#270000
0!
0;
#275000
1!
1;
0G#
0?
1H!
1@
1T!
1I!
0Y!
1U!
1P!
0Z!
0V!
0R!
1=
1Q!
0<
1S!
1h"
1R!
0X!
1G!
0h"
#280000
0!
0;
#285000
1!
1;
0E#
1F#
1G#
0A
1Y!
0@
0T!
1?
0H!
1B
1^!
1Z!
1A
0Y!
0U!
1T!
0I!
0C
1c!
1_!
1W!
0B
0^!
0Z!
0R!
1U!
0P!
1X!
0S!
0h!
1d!
1\!
1C
0c!
0_!
0W!
1R!
0=
0Q!
1<
1]!
0X!
1S!
1b"
0i!
1a!
1h!
0d!
0\!
0R!
1b!
0]!
0G!
0f!
0b"
1i!
0a!
0g!
0b!
1f!
1g!
#290000
0!
0;
#295000
1!
1;
0G#
0?
1H!
0T!
1I!
0U!
1P!
0P"
1V!
1R!
1=
1Q!
0<
0S!
1Q"
0[!
1W!
0V!
0R!
1G!
1`!
1\!
1[!
0W!
0e!
1a!
0`!
0\!
0f!
1e!
0a!
1h"
1f!
#300000
0!
0;
#305000
1!
1;
0F#
1G#
1@
1T!
1?
0H!
0A
1Y!
1U!
0@
0T!
0I!
1B
1^!
1Z!
1P"
1R!
1A
0Y!
0U!
0P!
1S!
0C
1c!
1_!
1W!
0Q"
0h"
0B
0^!
0Z!
0R!
0=
0Q!
1<
1X!
0S!
0h!
1d!
1\!
1C
0c!
0_!
0P"
0W!
1V!
1R!
1]!
0X!
0G!
1b"
0i!
1a!
1h!
0d!
0\!
1Q"
0[!
1W!
1b!
0]!
0f!
0b"
1i!
0a!
1`!
1\!
0g!
0b!
1f!
0e!
1a!
1g!
0f!
#310000
0!
0;
#315000
1!
1;
0G#
0?
1H!
1@
1T!
1I!
0A
1Y!
1U!
1P!
1B
1^!
1Z!
1P"
0V!
0R!
1=
1Q!
0<
1S!
0C
1c!
1_!
1[!
0Q"
1R!
1X!
1G!
0h!
1d!
0`!
1]!
0i!
1e!
1b!
0g!
#320000
0!
0;
#325000
1!
1;
0B#
1C#
1D#
1E#
1F#
1G#
1D
1h!
1C
0c!
0B
0^!
1A
0Y!
0@
0T!
1?
0H!
0m!
1i!
0D
0h!
0d!
1c!
0_!
1^!
0Z!
1Y!
0U!
1T!
0I!
0n!
1f!
1m!
0i!
0a!
1d!
0\!
1_!
0P"
0W!
1Z!
0R!
1U!
0P!
1g!
0b!
0]!
0X!
0S!
0k!
1n!
0f!
1a!
1h"
1\!
1Q"
1P"
1W!
1R!
0=
0Q!
1<
0l!
0g!
1b!
1]!
1X!
1S!
1k!
0h"
0Q"
0R!
1l!
0G!
#330000
0!
0;
#335000
1!
1;
0G#
0?
1H!
0T!
1I!
0U!
1P!
1V!
1R!
1=
1Q!
0<
0S!
0W!
0V!
0R!
1G!
1W!
#340000
0!
0;
#345000
1!
1;
0F#
1G#
1@
1T!
1?
0H!
0Y!
1U!
0@
0T!
0I!
0Z!
1R!
1Y!
0U!
0P!
1S!
0P"
0W!
1Z!
0R!
0=
0Q!
1<
0X!
0S!
1Q"
1P"
1W!
1V!
1R!
1X!
0G!
0Q"
0W!
#350000
0!
0;
#355000
1!
1;
0G#
0?
1H!
1@
1T!
1I!
0Y!
1U!
1P!
0Z!
0V!
0R!
1=
1Q!
0<
1S!
1R!
0X!
1G!
#360000
0!
0;
#365000
1!
1;
0E#
1F#
1G#
0A
1Y!
0@
0T!
1?
0H!
0^!
1Z!
1A
0Y!
0U!
1T!
0I!
0_!
1W!
1^!
0Z!
0R!
1U!
0P!
1X!
0S!
0\!
1_!
0W!
1R!
0=
0Q!
1<
0]!
0X!
1S!
1\!
0R!
1]!
0G!
#370000
0!
0;
#375000
1!
1;
0G#
0?
1H!
0T!
1I!
0U!
1P!
0P"
1V!
1R!
1=
1Q!
0<
0S!
1Q"
0[!
1W!
0V!
0R!
1G!
0\!
1[!
0W!
1h"
1\!
0h"
#380000
0!
0;
